{
  "schema": {
    "type": "object",
    "title": "Wordpress tinymce formatting schema",
    "description": "Available formatting options. Additional information if required can be found in https://codex.wordpress.org/TinyMCE_Custom_Styles (WORDPRESS)",
    "properties": {
      "formats": {
        "type": "array",
        "items": {
          "type": "object",
          "properties": {
            "inline": {
              "type": "string",
              "description": "Name of the inline element to produce for example “span”. The current text selection will be wrapped in this inline element."
            },
            "block": {
              "type": "string",
              "description": "Name of the block element to produce for example “h1″. Existing block elements within the selection gets replaced with the new block element."
            },
            "selector": {
              "type": "string",
              "description": "CSS 3 selector pattern to find elements within the selection by. This can be used to apply classes to specific elements or complex things like odd rows in a table. Note that if you combine both selector and block then you can get more nuanced behavior where the button changes the class of the selected tag by default, but adds the block tag around the cursor if the selected tag isn't found."
            },
            "classes": {
              "type": "string",
              "description": "Space separated list of classes to apply to the selected elements or the new inline/block element."
            },
            "styles": {
              "type": "object",
              "description": "Name/value object with CSS style items to apply such as color etc - styles are ONLY added to styleselect dropdown menu"
            },
            "attributes": {
              "type": "string",
              "description": "Name/value object with attributes to apply to the selected elements or the new inline/block element."
            },
            "exact": {
              "type": "string",
              "description": "Disables the merge similar styles feature when used. This is needed for some CSS inheritance issues such as text-decoration for underline/strikethrough."
            },
            "wrapper": {
              "type": "boolean",
              "description": "State that tells that the current format is a container format for block elements. For example a div wrapper or blockquote."
            }
          }
        }
      }
    },
    "required": [
      "formats"
    ]
  },
  "formats": [
    {
      "title": "White, bolded text",
      "inline": "span",
      "classes": "white-bold-text",
      "styles" : {
        "color": "#ffffff",
        "fontWeight": "bold"
      }
    }
  ]
}